1 10 20
100 200 125
201 210 89
900 1000 174
1 1 1
999999 999999 259
5 5 6
10 1 20
2 1 2
3635 7770 262
4054 6123 236
1505 299 182
5063 4576 210
8672 9624 260
1930 8959 262
4703 995 238
5522 9378 262
9328 7858 260
6264 2943 262
4514 9134 262
6603 877 262
8528 8417 203
1175 7654 262
6360 957 262
5573 5092 236
5284 5453 192
2538 4346 238
7446 8834 252
4786 5605 236
5937 7127 262
6238 2426 262
4102 667 238
5620 7655 262
1679 9076 262
6285 5552 262
261 6773 262
6702 3389 262
6107 2565 238
615 475 142
2601 9167 262
353 1148 179
1627 6855 262
3775 2337 238
1969 6444 262
3102 4162 238
6573 2102 262
2321 5583 238
7088 9904 260
1146 904 174
6105 4561 236
9358 9724 198
4932 6562 262
2368 5456 238
8015 5287 262
419 6367 262
906 4861 238
3848 2837 238
9325 8891 260
6900 2419 262
7732 4432 262
7943 299 262
6650 9510 260
3416 618 217
4617 3247 238
7907 3224 262
519 2742 209
3814 4402 215
3404 7906 262
9556 2231 262
4840 5041 210
8430 1268 262
544 987 179
5310 9093 262
3593 6022 238
2318 8600 262
8103 820 262
6645 2234 262
896 7953 262
2676 9908 262
1118 5390 238
7056 5778 262
7389 5478 262
1802 8103 262
1454 9312 262
6180 5899 262
1693 6906 262
3356 4483 238
1368 3001 217
1582 4086 238
5563 5887 236
1521 6041 238
1284 2725 209
5634 1699 238
6467 7356 257
5936 4380 236
4795 6212 262
6575 6856 244
8676 8625 172
3773 4504 215
2595 2061 209
6345 8876 257
348 7340 262
4399 3704 238
1692 5021 238
5878 5864 143
8947 7752 252
100 5693 238
8624 737 262
4151 9935 262
