1 10 20
100 200 125
201 210 89
900 1000 174
999999 999999 259
1000 1001 143
999998 999999 259
999999 999998 259
1 2 2
200 900 179
6493 2928 262
929 1002 174
82938 111000 354
82 930 179
9342 3942 262
29 40 107
120 19998 279
2928 7856 262
93 192 125
388 82828 351
87182 99292 333
9 10 20
3 1 8
99 100 26
8777 8776 141
500 501 111
7 6 17
999999 999990 259
5 1 8
92 96 106
22 4920 238
1000 3000 217
453 452 15
79 987 179
8796 89808 351
443 672 145
994 757 179
9808 4432 262
660 667 145
213 879 179
908 960 174
32 34 27
86 5646 238
889 44 179
6 8 17
55 554 144
98 100 26
879 568 179
65 45 113
330 3334 217
23598 56654 340
8 82 116
92 2902 209
2924 294 217
42 3983 238
93 49 116
923043 923687 308
39 38 35
90 100 119
21 27 112
26 1 24
393 202 144
58 900 179
948 437 179
4908 23808 282
8484 8585 203
228 2838 209
380 823 171
9383 50188 324
4022 30299 308
284 902 179
386 715 171
98 72 119
140892 596854 470
888599 841236 445
800876 66173 509
267460 123647 443
519502 797927 509
471326 495186 426
683245 398056 509
827037 220154 509
98419 511555 449
29725 936711 525
876364 408745 525
453790 636945 509
799309 804424 406
2209 729634 509
467023 279268 449
756590 840776 525
239875 619870 470
991189 107193 525
945216 332850 525
32076 23407 308
26682 681099 509
567713 9653 470
984770 924041 507
399722 719831 509
227121 442622 449
761112 30452 509
659925 758791 504
901720 310788 525
126763 779246 509
348857 939079 525
756532 745739 424
525127 981930 525
442612 532381 470
870356 954399 507
702867 199072 509
318105 297963 384
616123 925347 525
523620 887303 525
986620 529829 525
412462 617614 470
894738 36203 525
503555 254532 449
779859 836139 468
423927 434440 387
697035 181412 509
384958 575458 470
925612 737192 525
813525 707250 468
774076 392905 509
90668 460285 449
696001 533124 509
768361 31012 509
492118 45600 449
323517 737550 509
889509 644676 525
621999 606262 447
412720 678593 509
178625 176784 347
526636 237962 470
12900 807953 509
209209 565830 470
433482 508481 444
852861 374122 525
434556 362890 449
1662 564636 470
