.............
----------------------------------------------------------------------
Ran 13 tests in 9.677s

OK
Name             Stmts   Miss Branch BrPart  Cover   Missing
------------------------------------------------------------
Collatz.py          38      0     14      0   100%
TestCollatz.py      60      0      0      0   100%
------------------------------------------------------------
TOTAL               98      0     14      0   100%
