1 10 20
100 200 125
201 210 89
900 1000 174
10 1 20
1 1 1
200 200 27
6000 2000 238
5000 10000 262
200000 10000 383
999999 999999 259
1 999999 525
3 3 8
690 690 127
870 2 171
999999 2 525
777777 777777 155
32 80000 351
4 4 3
5 5 6
6 6 9
7 7 17
8 8 4
9 9 20
10 10 7
100 100 26
150 150 16
300 300 17
350 350 82
400 400 28
450 450 54
500 500 111
1000 1000 112
1500 1500 48
2000 2000 113
2500 2500 28
3000 3000 49
3500 3500 31
4000 4000 114
4500 4500 47
5000 5000 29
5500 5500 42
6000 6000 50
6500 6500 138
7000 7000 32
7500 7500 177
8000 8000 115
8500 8500 128
9000 9000 48
10000 10000 30
15000 15000 178
20000 20000 31
25000 25000 127
30000 30000 179
35000 35000 81
40000 40000 32
45000 45000 164
50000 50000 128
55000 55000 92
60000 60000 180
65000 65000 69
70000 70000 82
75000 75000 51
80000 80000 33
85000 85000 59
90000 90000 165
95000 95000 147
100 1 119
200 2 125
300 3 128
400 4 144
500 5 144
600 6 144
700 7 145
800 8 171
900 9 179
1000 10 179
1500 15 182
2000 20 182
2500 25 209
3000 30 217
3500 35 217
4000 40 238
4500 45 238
5000 50 238
5500 55 238
6000 60 238
6500 65 262
7000 70 262
7500 75 262
8000 80 262
8500 85 262
9000 90 262
9500 95 262
10000 100 262
15000 150 276
20000 200 279
25000 250 282
35000 350 311
40000 400 324
45000 450 324
50000 500 324
55000 550 340
60000 600 340
65000 650 340
70000 700 340
75000 750 340
80000 800 351
85000 850 351
90000 900 351
100000 1 351
200000 2 383
300000 3 443
400000 4 443
500000 5 449
600000 6 470
700000 7 509
800000 8 509
900000 9 525
