1 10 20
100 200 125
201 210 89
900 1000 174
678 278 145
842 985 179
324 643 144
521 788 171
9538 1694 262
8593 7358 252
9741 5835 262
3604 6606 262
876 4723 238
9758 1722 262
2372 5433 238
5926 4424 236
2659 8108 262
8611 6403 257
3434 8917 262
4575 2436 238
1430 9055 262
1858 7454 262
8661 2086 262
5799 4630 236
2523 444 209
8490 5793 262
9966 6202 260
7011 5024 262
4448 6994 262
5985 7407 262
3564 2584 217
6834 412 262
6316 8938 257
9423 6214 260
4655 5028 210
3522 8209 262
2829 5190 238
7855 6328 257
8240 8759 234
1977 4719 238
6097 5702 218
9440 6402 260
3883 2240 238
682 4802 238
974 1475 182
2086 6590 262
8900 3522 262
1875 930 182
1087 4921 238
3627 5488 238
9275 5381 262
6819 7792 257
9647 229 262
6261 9639 260
2803 2035 209
9156 6576 257
5217 7970 262
6974 7464 239
3145 8294 262
5347 1263 238
3991 6078 236
109 8041 262
334 9351 262
9616 2859 262
5384 3336 238
2746 3051 217
1127 908 174
1428 8262 262
2913 7674 262
7276 6945 195
9363 4827 262
3473 2324 217
9056 7182 252
4565 7922 262
5343 9971 262
5221 7742 262
6403 3312 262
2219 6814 262
3930 9710 262
147 9361 262
3939 9804 262
2316 9700 262
5307 5575 236
9995 946 262
7442 381 262
204 2552 209
8076 6305 257
5025 4123 215
9633 8275 260
1444 7033 262
3889 7101 262
1686 2741 209
6085 5127 236
6349 8780 257
9569 6480 260
4598 2133 238
6560 5455 262
9711 9094 260
2008 6126 238
696 389 145
5690 5184 236
5935 2886 238
7646 4617 262
3213 9938 262
2165 9628 262
1771 4827 238
1867 1017 182
2590 1524 209
